module gitlab.com/yoko-chance/intaglio

go 1.22.1

require golang.org/x/crypto v0.0.0-20220126234351-aa10faf2a1f8

require (
	golang.org/x/sys v0.0.0-20210615035016-665e8c7367d1 // indirect
	golang.org/x/term v0.0.0-20201126162022-7de9c90e9dd1 // indirect
)
